[
    {
        "pk": 1,
        "model": "sites.site",
        "fields": {"domain": "127.0.0.1:8000", "name": "LocalHost"}
    },
    {
        "pk": 2,
        "model": "sites.site",
        "fields": {"domain": "buildhousemain.mooo.com", "name": "Production"}
    }
]